controller\processors\PostCodeInputProcessor.class
controller\constants\ArgumentConstants.class
controller\constants\ExitCodes.class
controller\threads\PrinterThread.class
controller\exceptions\FileProcessException.class
view\ArgumentsExtractor.class
controller\PackageController.class
Main.class
view\UserCommands.class
controller\Package.class
controller\processors\InputProcessor.class
controller\processors\CostInputProcessor.class
controller\threads\UserInputThread.class
